com/concirrus/reegs/manager/LinkManager.class
com/concirrus/reegs/model/RoadSpeedResponse/RouteLnk/Attributes/SPEED_LIMITS_FCN.class
com/concirrus/reegs/dal/LinkDAL.class
com/concirrus/reegs/model/RoadSpeedResponse/RouteLnk/RouteLink.class
com/concirrus/reegs/model/enums/RMEEventType.class
com/concirrus/reegs/model/enums/ServiceResponse.class
com/concirrus/reegs/model/RoadSpeedResponse/RouteLnk/Attributes/LINK_ATTRIBUTE_FCN.class
com/concirrus/reegs/config/mongo/LinkMongoConfig.class
com/concirrus/reegs/config/security/SpringSecurityConfig.class
com/concirrus/reegs/model/RoadSpeedResponse/Links.class
com/concirrus/reegs/model/VerifySpeedLimit/LinkDetail.class
com/concirrus/reegs/manager/RMEEventManagerImpl.class
com/concirrus/reegs/model/RoadSpeedResponse/Points.class
com/concirrus/reegs/config/security/AuthenticationEntryPoint.class
com/concirrus/reegs/model/RoadSpeedRequest/Location.class
com/concirrus/reegs/ReegsApp.class
com/concirrus/reegs/model/RoadSpeedResponse/RMEEvent.class
com/concirrus/reegs/model/RoadSpeedResponse/RouteLnk/Attribute.class
com/concirrus/reegs/controller/ReegsController.class
com/concirrus/reegs/model/RoadSpeedResponse/RMEWarning.class
com/concirrus/reegs/manager/LinkManagerImpl.class
com/concirrus/reegs/model/RoadSpeedResponse/TracePoint.class
com/concirrus/reegs/model/enums/ResponseCode.class
com/concirrus/reegs/model/RoadSpeedRequest/Journey.class
com/concirrus/reegs/manager/HEREAPIManager.class
com/concirrus/reegs/dal/LinkDALImpl.class
com/concirrus/reegs/manager/RMEEventManager.class
com/concirrus/reegs/manager/HEREAPIManagerImpl.class
com/concirrus/reegs/model/RoadSpeedResponse/RMEResponse.class
